3
14
23
28
40
55
59
62
67
75
83
91
97
108
110
122
125
138
141
157
162
180
183
187
197
204
221
226
240
247
253
259
271
280
287
292
297
300
305
324
327
329
332
347
359
362
368
381
384
389
392
395
398
410
413
416
421
428
441
442
450
474
477
480
490
502
513
528
538
542
560
587
599
609
615
621
624
632
638
641
646
665
674
678
689
695
698
699
714
735
761
762
766
781
784
809
827
838
850
867
871
884
885
896
921
926
930
935
956
970
986
989
999
1003
1004
1008
1011
1017
1033
1042
1069
1082
1087
1091
1101
1104
1108
1112
1129
1134
1138
1160
1169
1181
1194
1205
1209
1211
1241
1259
1270
1296
1299
1302
1306
1309
1323
1327
1330
1331
1335
1350
1363
1379
1384
1407
1415
1431
1448
1457
1467
1470
1471
1475
1477
1482
1485
1499
1501
1510
1513
1546
1554
1559
1563
1567
1570
1582
1593
1601
1618
1620
1625
1632
1636
1662
1663
1669
1674
1695
1697
1710
1711
1717
1728
1739
1745
1763
1774
1778
1796
1805
1812
1813
1822
1823
1826
1830
1844
1848
1849
1865
1872
1884
1887
1900
1905
1920
1926
1929
1936
1945
1953
1964
1969
1983
1986
1994
1995
2013
2022
2029
2035
2039
2047
2050
2071
2072
2078
2094
2116
2132
2160
2165
2173
2176
2184
2194
2195
2207
2227
2237
2245
2263
2276
2280
2294
2302
2306
2315
2321
2329
2345
2349
2351
2377
2384
2397
2404
2430
2436
2440
2448
2485
2488
2491
2501
2504
2507
2524
2532
2550
2553
2557
2580
2590
2600
2610
2611
2621
2624
2642
2679
2693
2698
2713
2723
2728
2744
2756
2780
2781
2784
2788
2791
2799
2802
2822
2832
2843
2847
2873
2885
2897
2900
2907
2919
2931
2933
2937
2941
2955
2966
2969
2972
2981
3003
3011
3016
3032
3036
3041
3047
3053
3066
3074
3085
3094
3114
3117
3131
3136
3139
3156
3164
3169
3180
3183
3196
3200
3201
3236
3246
3251
3261
3264
3270
3273
3278
3283
3302
3308
3314
3315
3327
3333
3358
3367
3370
3382
3394
3399
3402
3415
3422
3433
3438
3455
3463
3466
3475
3476
3486
3491
3499
3504
3525
3534
3539
3549
3550
3560
3574
3577
3578
3592
3597
3598
3610
3614
3623
3633
3636
3651
3656
3673
3674
3678
3691
3713
3717
3718
3723
3737
3741
3745
3756
3759
3776
3779
3783
3788
3798
3801
3806
3811
3816
3824
3841
3842
3856
3860
3870
3876
3884
3892
3899
3909
3914
3922
3934
3941
3949
3953
3965
3972
3981
3989
3994
4018
4024
4036
4048
4051
4069
4075
4086
4100
4106
4133
4153
4157
4158
4162
4173
4179
4192
4208
4221
4247
4259
4269
4282
4283
4293
4311
4319
4322
4336
4343
4349
4352
4377
4382
4392
4397
4403
4405
4409
4422
4425
4431
4434
4437
4444
4449
4452
4455
4458
4460
4482
4485
4497
4505
4511
4512
4522
4526
4531
4535
4555
4561
4565
4569
4575
4583
4612
4616
4622
4641
4662
4672
4683
4688
4711
4712
4715
4723
4731
4742
4745
4754
4770
4773
4776
4783
4810
4852
4855
4860
4867
4873
4878
4895
4898
4901
4920
4928
4950
4953
4954
4959
4962
4964
4967
4971
4987
4999
5002
5005
5009
5020
5030
5039
5050
5064
5066
5072
5076
5083
5089
5090
5095
5120
5131
5137
5149
5153
5159
5170
5196
5206
5219
5232
5246
5250
5259
5263
5266
5281
5294
5311
5316
5323
5327
5333
5341
5346
5350
5351
5356
5366
5369
5403
5414
5422
5428
5437
5443
5448
5468
5492
5499
5516
5523
5531
5534
5565
5568
5576
5591
5594
5616
5623
5644
5649
5652
5659
5660
5666
5670
5680
5685
5689
5694
5708
5710
5713
5732
5739
5745
5753
5757
5760
5768
5776
5782
5785
5791
5820
5824
5825
5841
5854
5862
5867
5875
5898
5901
5944
5955
5958
5961
5967
6006
6009
6010
6013
6024
6029
6038
6066
6089
6097
6121
6124
6135
6142
6146
6153
6156
6161
6175
6185
6188
6192
6195
6207
6218
6223
6243
6246
6289
6297
6305
6323
6325
6340
6347
6350
6355
6360
6371
6377
6393
6396
6401
6413
6442
6446
6469
6483
6487
6496
6498
6501
6507
6517
6536
6540
6549
6554
6558
6599
6602
6607
6610
6618
6620
6648
6651
6658
6664
6692
6697
6700
6711
6726
6730
6735
6743
6751
6759
6777
6812
6827
6839
6853
6860
6867
6877
6881
6887
6894
6897
6903
6907
6911
6914
6947
6950
6968
6982
6986
6989
6995
7004
7007
7013
7030
7049
7063
7070
7071
7077
7091
7094
7100
7103
7113
7120
7128
7140
7148
7158
7173
7191
7193
7205
7216
7234
7237
7250
7253
7258
7265
7270
7303
7304
7310
7317
7321
7328
7331
7349
7352
7353
7356
7367
7368
7395
7403
7407
7408
7425
7434
7451
7454
7465
7468
7488
7505
7510
7519
7524
7529
7537
7542
7550
7562
7601
7610
7618
7630
7664
7672
7679
7701
7704
7740
7744
7762
7772
7777
7787
7788
7800
7809
7816
7826
7829
7830
7832
7839
7860
7880
7890
7897
7907
7911
7919
7931
7934
7938
7948
7955
7958
7977
7981
7984
7987
7994
8006
8013
8030
8033
8049
8055
8059
8070
8073
8077
8094
8111
8122
8129
8142
8147
8157
8161
8167
8185
8198
8212
8224
8229
8230
8234
8243
8257
8272
8278
8286
8294
8305
8320
8325
8330
8342
8350
8355
8360
8374
8381
8402
8405
8417
8422
8437
8438
8443
8456
8473
8491
8496
8500
8519
8529
8534
8543
8549
8550
8558
8563
8574
8579
8590
8601
8616
8654
8657
8667
8674
8679
8704
8707
8709
8712
8720
8739
8755
8770
8774
8792
8806
8810
8813
8818
8835
8866
8869
8877
8885
8890
8902
8903
8905
8908
8910
8915
8920
8928
8934
8937
8942
8947
8954
8962
8965
8982
8988
8994
9001
9018
9022
9026
9032
9040
9046
9053
9056
9066
9080
9084
9087
9099
9102
9111
9117
9124
9127
9132
9141
9144
9146
9150
9157
9162
9169
9178
9184
9206
9213
9214
9217
9222
9228
9234
9247
9248
9265
9293
9294
9298
9313
9316
9329
9333
9367
9379
9381
9385
9422
9437
9444
9445
9463
9480
9484
9486
9489
9493
9503
9505
9509
9523
9539
9556
9563
9588
9596
9603
9624
9642
9647
9656
9660
9665
9681
9691
9696
9707
9713
9719
9735
9747
9751
9771
9781
9806
9809
9831
9842
9845
9849
9862
9868
9871
9875
9878
9883
9889
9892
9897
9901
9909
9925
9940
9954
9957
9960
9971
9976
9985
9990
9991
9999
10007
10015
10028
10034
10060
10078
10080
10085
10088
10091
10099
10102
10106
10109
10120
10128
10132
10138
10149
10162
10167
10174
10178
10191
10195
10198
10203
10211
10214
10250
10257
10263
10265
10268
10270
10286
10291
10302
10314
10317
10323
10338
10342
10345
10349
10360
10373
10377
10383
10396
10401
10404
10416
10426
10430
10453
10458
10466
10476
10479
10502
10507
10518
10523
10543
10546
10548
10558
10575
10579
10582
10590
10596
10601
10605
10610
10616
10621
10625
10629
10642
10695
10702
10715
10723
10727
10730
10741
10750
10755
10763
10773
10783
10792
10796
10810
10828
10832
10879
10892
10895
10901
10904
10911
10936
10940
10941
10946
10949
10956
10961
10966
10979
10980
10983
10996
11000
11013
11025
11032
11044
11049
11055
11063
11078
11088
11098
11129
11143
11147
11152
11168
11182
11189
11194
11200
11233
11247
11253
11264
11267
11273
11276
11289
11311
11322
11330
11334
11345
11356
11360
11363
11366
11369
11372
11375
11378
11382
11393
11397
11403
11404
11415
11418
11462
11465
11466
11470
11473
11480
11484
11490
11497
11512
11524
11534
11546
11558
11563
11569
11580
11587
11599
11618
11635
11649
11650
11653
11660
11665
11667
11670
11677
11678
11681
11684
11688
11701
11714
11729
11732
11741
11746
11773
11788
11798
11802
11830
11838
11855
11868
11873
11878
11881
11887
11897
11900
11917
11924
11928
11931
11937
11950
11964
11968
11971
11976
11984
11988
11991
11994
12004
12007
12010
12022
12023
12026
12029
12030
12046
12050
12064
12073
12076
12080
12102
12107
12125
12128
12130
12145
12154
12158
12162
12165
12187
12192
12210
12218
12237
12245
12253
12256
12268
12274
12283
12286
12296
12304
12313
12319
12326
12329
12331
12339
12379
12385
12388
12397
12398
12410
12411
12415
12431
12445
12452
12453
12464
12501
12508
12511
12515
12522
12534
12542
12548
12567
12576
12606
12613
12625
12629
12641
12658
12681
12694
12707
12712
12730
12733
12735
12743
12747
12750
12763
12774
12779
12780
12786
12799
12810
12815
12821
12838
12841
12865
12867
12879
12882
12887
12894
12912
12917
12925
12928
12943
12950
12962
12964
12976
12985
13003
13006
13042
13043
13048
13060
13072
13079
13084
13104
13113
13123
13129
13157
13160
13162
13169
13173
13181
13186
13191
13200
13205
13223
13226
13229
13242
13252
13267
13280
13283
13291
13303
13306
13324
13328
13329
13332
13347
13352
13355
13368
13374
13392
13401
13408
13413
13416
13427
13442
13449
13462
13465
13475
13483
13501
13507
13517
13521
13527
13532
13535
13539
13544
13552
13555
13560
13561
13568
13588
13607
13609
13612
13627
13647
13659
13665
13674
13677
13686
13690
13701
13706
13713
13724
13733
13741
13744
13760
13764
13791
13807
13808
13826
13864
13867
13873
13874
13888
13896
13900
13903
13907
13920
13925
13932
13937
13948
13953
13956
13961
13964
13966
13977
13991
13994
14011
14012
14028
14035
14039
14044
14049
14051
14069
14071
14087
14098
14104
14122
14128
14138
14146
14149
14154
14158
14159
14162
14175
14179
14182
14207
14211
14223
14239
14243
14247
14266
14270
14274
14279
14282
14287
14290
14314
14320
14324
14334
14345
14347
14366
14369
14374
14389
14392
14423
14434
14439
14460
14465
14473
14478
14483
14484
14487
14499
14507
14514
14530
14531
14534
14560
14564
14592
14605
14608
14619
14626
14638
14643
14660
14661
14664
14673
14678
14683
14716
14719
14720
14723
14736
14743
14744
14757
14763
14771
14776
14790
14793
14819
14822
14825
14837
14845
14848
14852
14871
14882
14889
14899
14903
14919
14922
14924
14926
14929
14941
14959
14962
14966
14967
14970
14973
14986
14989
14996
15019
15022
15029
15041
15060
15066
15100
15105
15113
15117
15169
15174
15182
15185
15194
15201
15208
15210
15227
15228
15231
15235
15250
15260
15270
15274
15287
15290
15297
15309
15323
15328
15330
15340
15346
15349
15352
15356
15360
15365
15384
15394
15413
15418
15424
15433
15439
15447
15453
15456
15480
15481
15493
15504
15518
15521
15524
15541
15556
15562
15572
15584
15587
15595
15625
15634
15639
15642
15650
15654
15655
15666
15679
15685
15692
15708
15724
15742
15760
15763
15776
15779
15791
15796
15815
15819
15822
15836
15851
15852
15856
15863
15883
15891
15896
15908
15912
15923
15931
15941
15975
15978
15988
15996
16009
16012
16017
16028
16036
16039
16050
16063
16065
16086
16093
16100
16114
16121
16126
16129
16144
16147
16149
16154
16166
16170
16184
16191
16194
16197
16204
16222
16240
16246
16250
16255
16261
16269
16273
16278
16308
16312
16315
16327
16330
16334
16337
16340
16344
16351
16352
16371
16379
16405
16431
16456
16469
16474
16480
16487
16499
16514
16521
16524
16527
16531
16534
16539
16543
16546
16552
16563
16571
16575
16582
16590
16607
16619
16623
16632
16635
16640
16647
16652
16657
16666
16669
16673
16677
16686
16691
16698
16708
16725
16734
16742
16752
16765
16769
16774
16778
16782
16786
16794
16800
16820
16828
16829
16836
16842
16853
16854
16859
16871
16874
16885
16895
16898
16901
16904
16915
16930
16933
16939
16945
16962
16970
16984
16998
17001
17013
17024
17047
17052
17054
17057
17060
17067
17086
17091
17098
17113
17124
17133
17150
17155
17160
17164
17174
17177
17189
17193
17198
17201
17218
17232
17242
17246
17260
17267
17271
17279
17283
17300
17302
17319
17325
17361
17375
17380
17394
17397
17404
17419
17428
17439
17451
17455
17458
17466
17479
17497
17500
17504
17514
17524
17528
17539
17544
17547
17551
17571
17573
17578
17593
17597
17599
17615
17621
17624
17627
17633
17641
17646
17651
17658
17675
17679
17683
17720
17728
17732
17738
